<?xml version="1.0" encoding="utf-8"?>
<!-- Generator: Adobe Illustrator 23.0.1, SVG Export Plug-In . SVG Version: 6.00 Build 0)  -->
<svg version="1.1" id="Camada_1" xmlns="http://www.w3.org/2000/svg" xmlns:xlink="http://www.w3.org/1999/xlink" x="0px" y="0px"
	 viewBox="0 0 512 512" style="enable-background:new 0 0 512 512;" xml:space="preserve">
<style type="text/css">
	.st0{fill-rule:evenodd;clip-rule:evenodd;fill:#328332;}
	.st1{fill:#FFFFFF;}
	.st2{fill:#FFFFFF;fill-opacity:0.601;}
	.st3{opacity:0.2;fill-rule:evenodd;clip-rule:evenodd;fill:#FFFFFF;enable-background:new    ;}
	.st4{opacity:0.603;fill-rule:evenodd;clip-rule:evenodd;fill:#FFFFFF;enable-background:new    ;}
</style>
<g>
	<circle class="st0" cx="256" cy="256" r="256"/>
	<g>
		<path class="st1" d="M255.8,264.8l-107.5-9.2l107.5-60.8L255.8,264.8L255.8,264.8z M255.8,336.2v111
			C218.4,389,177.2,325,144,273.1C183.2,295.2,224.1,318.3,255.8,336.2L255.8,336.2z M255.8,175.1L144,237.5L255.8,64
			C255.8,64,255.8,175.1,255.8,175.1z"/>
		<path class="st2" d="M363.4,255.6l-107.5,9.2v-70.1L363.4,255.6L363.4,255.6z M255.8,336.2c31.7-17.9,72.6-41,111.8-63.1
			c-33.2,51.9-74.4,115.9-111.8,174.1C255.8,447.2,255.8,336.2,255.8,336.2z M255.8,175.1V64l111.8,173.5
			C367.6,237.5,255.8,175.1,255.8,175.1z"/>
		<path class="st3" d="M255.8,264.8l107.5-9.2L255.8,316V264.8z"/>
		<path class="st4" d="M255.8,264.8l-107.5-9.2L255.8,316L255.8,264.8z"/>
	</g>
</g>
</svg>
